18 Inferential Thinking Case Study – Computational Probability and Statistics
…
The table shows there were 7 fewer promotions in the female group than in the male group, a difference in promotion rates of 29.2% \(\left( \frac{21}{24} - \frac{14}{24} = 0.292 \right)\). This observed difference is what we call a point estimate of the true effect.

obs <- diffprop(decision ~ gender, data = discrim)
obs

  diffprop 
-0.2916667 

Now that we have the data in the form that we want, we are ready to generate bootstrap samples. We essentially assign an equal probability to each observation in the original sample and sample with replacement, ensuring each bootstrap sample is the same size as the original sample. In R, we use the resample() function from the mosaic package to sample rows of the data with replacement. This generates a new data frame with the same number of rows as the original. Some rows may be duplicated and others may be missing.

set.seed(627)
resample(discrim)

# A tibble: 48 × 3
   gender decision     orig.id
   <fct>  <fct>        <chr>  
 1 female promoted     25     
 2 female promoted     45     
 3 male   promoted     10     
 4 male   promoted     28     
 5 female promoted     33     
 6 male   promoted     17     
 7 male   promoted     3      
 8 male   not_promoted 31     
 9 male   not_promoted 13     
10 male   not_promoted 31     
# ℹ 38 more rows
…
